{
    "smtp_host": "smtp.example.com",
    "smtp_port": 465,
    "smtp_user":  "user@example.com",
    "smtp_pass": "Qwerty123456",
    "email_recipient": "user2@example.com",
    "xmpp_jid": "user@example.com",
    "xmpp_pass": "Qwerty123456",
    "jabber_recipient": "user2@example.com",
    "my_visa_id": 123456,
    "notifications_frequency": 15,
    "logging_level": "WARNING"
}